<svg xmlns="http://www.w3.org/2000/svg" fill="none" viewBox="0 0 80 20">
  <path fill="#E30611" fill-rule="evenodd" d="M0 12.1112C0 16.039 2.19523 20 7.11103 20 12.0224 20 14.222 16.039 14.222 12.1112 14.222 9.42825 13.32 6.33867 11.8144 3.84318 10.3503 1.43337 8.59108 0 7.11103 0 5.62678 0 3.86679 1.43337 2.41536 3.84318.902675 6.33867 0 9.42825 0 12.1112zM50.4874 5.89308H45.5098V1.07178H60.7984V5.89308H55.8208V18.9288H50.4874V5.89308zM72.1752 5.89329H79.9978V1.07178H72.1759C64.9885 1.07178 61.1514 4.66109 61.1514 10.0004 61.1514 15.3398 64.9885 18.929 72.1759 18.929H79.9978V14.1075H72.1752C68.8496 14.1075 66.6624 12.9133 66.6624 10.0004 66.6624 7.08749 68.8496 5.89329 72.1752 5.89329zM31.8219 11.7305L34.6651 1.07178H44.0896V18.929H38.7561V4.39483L34.8793 18.929H28.7643L24.89 4.40407 24.8897 18.929H19.5566V1.07178H28.9785L31.8219 11.7305z" clip-rule="evenodd"/>
</svg>
